#               System |               PES |              Ecut |          Molecule |      No Processes |
$                   O3              Merged   -0.1000000000D+05                  O2               17899
#          Current Bin |    PartFunc Ratio | Trans Temperature |   Int Temperature |   No Trajectories |
$                 4581    0.1947460123D-05    0.1500000000D+05    0.1500000000D+05               50000
#                                Process |              Rate |      Rate St. Dev |
   Dissociation Rate                   1    0.4039689387D-08    0.4140740180D-10
O-O(801)                             802    0.1218909449D-12    0.1218812851D-12
O-O(3757)                           3758    0.6092613765D-13    0.6092130777D-13
O-O(3987)                           3988    0.1218909449D-12    0.1218812851D-12
O-O(4313)                           4314    0.2983399273D-12    0.2983160836D-12
O-O(4337)                           4338    0.6092613765D-13    0.7555268115D+02
O-O(4474)                           4475    0.1218909449D-12    0.1218812851D-12
O-O(4491)                           4492    0.4104232276D+15    0.2983160836D-12
O-O(4521)                           4522    0.1434554711D-14    0.1434440536D-14
O-O(4537)                           4538    0.2983399273D-12    0.2983160836D-12
O-O(4539)                           4540    0.5707299688D-14    0.5706847269D-14
O-O(4550)                           4551    0.2983399273D-12    0.2983160836D-12
O-O(4551)                           4552    0.2983399273D-12    0.2983160836D-12
O-O(4552)                           4553    0.1009122551D-11    0.1009042308D-11
O-O(4553)                           4554    0.1885244372D-12    0.1363782351D-12
O-O(4556)                           4557    0.5707299688D-14    0.5706847269D-14
O-O(4560)                           4561    0.5966797017D-12    0.4218490335D-12
O-O(4563)                           4564    0.2437818897D-12    0.1723524526D-12
O-O(4564)                           4565    0.2437818897D-12    0.1723524526D-12
O-O(4569)                           4570    0.1218909449D-12    0.1218812851D-12
O-O(4571)                           4572    0.5053400167D-11    0.2086257402D-11
O-O(4572)                           4573    0.4105681545D+15    0.3222538338D-12
O-O(4573)                           4574    0.2954230488D-10    0.5082330515D-11
O-O(4574)                           4575    0.1398096023D-10    0.3448144944D-11
O-O(4575)                           4576    0.1059570792D-10    0.2839884108D-11
O-O(4576)                           4577    0.6985893263D-11    0.2015330332D-11
O-O(4578)                           4579    0.8285568636D-11    0.2429896724D-11
O-O(4579)                           4580    0.4259380740D-12    0.3223043670D-12
O-O(4580)                           4581    0.1403833132D-09    0.1057190852D-10
O-O(4581)                           4582    0.5122891846D-08    0.4371415407D-10
O-O(4582)                           4583    0.9623525363D-12    0.4717071273D-12
O-O(4584)                           4585    0.9013877291D-12    0.4597536272D-12
O-O(4586)                           4587    0.4202308721D-12    0.3222538338D-12
O-O(4591)                           4592    0.2983399273D-12    0.2983160836D-12
O-O(4596)                           4597    0.1434554711D-14    0.1434440536D-14
O-O(4599)                           4600    0.1218909449D-12    0.1218812851D-12
O-O(4976)                           4977    0.4723148208D-15    0.4722776797D-15
O-O(5127)                           5128    0.5707299688D-14    0.5706847269D-14
O-O(5138)                           5139    0.5707299688D-14    0.5706847269D-14
O-O(5147)                           5148    0.5707299688D-14    0.5706847269D-14
O-O(1369)                           7336    0.1434554711D-14    0.1434440536D-14
O-O(1782)                           7749    0.1434554711D-14    0.1434440536D-14
O-O(1949)                           7916    0.5707299688D-14    0.5706847269D-14
O-O(2004)                           7971    0.6092613765D-13    0.6092130777D-13
O-O(2102)                           8069    0.4723148208D-15    0.4722776797D-15
O-O(2264)                           8231    0.4723148208D-15    0.4722776797D-15
O-O(2380)                           8347    0.5707299688D-14    0.5706847269D-14
O-O(2453)                           8420    0.1434554711D-14    0.1434440536D-14
O-O(2502)                           8469    0.1434554711D-14    0.1434440536D-14
O-O(2551)                           8518    0.1434554711D-14    0.1434440536D-14
O-O(3195)                           9162    0.1434554711D-14    0.1434440536D-14
O-O(3351)                           9318    0.5707299688D-14    0.5706847269D-14
O-O(3379)                           9346    0.1434554711D-14    0.1434440536D-14
O-O(3601)                           9568    0.1434554711D-14    0.1434440536D-14
O-O(3702)                           9669    0.6092613765D-13    0.6092130777D-13
O-O(3713)                           9680    0.4723148208D-15    0.4722776797D-15
O-O(3803)                           9770    0.5707299688D-14    0.5706847269D-14
O-O(3831)                           9798    0.3734657941D+15    0.4722776797D-15
O-O(4170)                          10137    0.5707299688D-14    0.5706847269D-14
O-O(4189)                          10156    0.1218909449D-12    0.1218812851D-12
O-O(4487)                          10454    0.6092613765D-13    0.6092130777D-13
O-O(4516)                          10483    0.1434554711D-14    0.1434440536D-14
O-O(4542)                          10509    0.4723148208D-15    0.4722776797D-15
O-O(4579)                          10546    0.4723148208D-15    0.4722776797D-15
O-O(4581)                          10548    0.2437432202D-12    0.1492537528D-12
O-O(4676)                          10643    0.1434554711D-14    0.1434440536D-14
O-O(4714)                          10681    0.5707299688D-14    0.7921676283D+02
O-O(4741)                          10708    0.1218909449D-12    0.1218812851D-12
O-O(4757)                          10724    0.1434554711D-14    0.1434440536D-14
O-O(4853)                          10820    0.6092613765D-13    0.6092130777D-13
O-O(4919)                          10886    0.4723148208D-15    0.4722776797D-15
O-O(4995)                          10962    0.5707299688D-14    0.5706847269D-14
O-O(5022)                          10989    0.6092613765D-13    0.6092130777D-13
O-O(5083)                          11050    0.4723148208D-15    0.4722776797D-15
O-O(5302)                          11269    0.6092613765D-13    0.6092130777D-13
O-O(5348)                          11315    0.5707299688D-14    0.5706847269D-14
O-O(5382)                          11349    0.1434554711D-14    0.1434440536D-14
O-O(5555)                          11522    0.6092613765D-13    0.6092130777D-13
O-O(5662)                          11629    0.5707299688D-14    0.5706847269D-14
O-O(5894)                          11861    0.2995551761D+15    0.6092130777D-13
O-O(874)                           12807    0.5707299688D-14    0.5706847269D-14
O-O(1272)                          13205    0.1434554711D-14    0.1434440536D-14
O-O(1663)                          13596    0.1434554711D-14    0.1434440536D-14
O-O(1796)                          13729    0.4723148208D-15    0.4722776797D-15
O-O(1835)                          13768    0.1434554711D-14    0.1434440536D-14
O-O(2278)                          14211    0.1434554711D-14    0.1434440536D-14
O-O(2301)                          14234    0.4723148208D-15    0.4722776797D-15
O-O(2439)                          14372    0.1434554711D-14    0.7921676283D+02
O-O(2457)                          14390    0.4723148208D-15    0.4722776797D-15
O-O(2598)                          14531    0.5707299688D-14    0.5706847269D-14
O-O(2942)                          14875    0.1434554711D-14    0.1434440536D-14
O-O(3207)                          15140    0.1434554711D-14    0.1434440536D-14
O-O(3293)                          15226    0.5707299688D-14    0.5706847269D-14
O-O(3297)                          15230    0.4723148208D-15    0.4722776797D-15
O-O(3371)                          15304    0.5707299688D-14    0.5706847269D-14
O-O(3519)                          15452    0.4723148208D-15    0.4722776797D-15
O-O(3734)                          15667    0.4723148208D-15    0.4722776797D-15
O-O(3789)                          15722    0.5707299688D-14    0.5706847269D-14
O-O(3828)                          15761    0.6092613765D-13    0.6092130777D-13
O-O(3910)                          15843    0.5707299688D-14    0.5706847269D-14
O-O(3974)                          15907    0.5707299688D-14    0.5706847269D-14
O-O(3977)                          15910    0.1434554711D-14    0.1434440536D-14
O-O(4055)                          15988    0.5707299688D-14    0.5706847269D-14
O-O(4249)                          16182    0.4723148208D-15    0.4722776797D-15
O-O(4267)                          16200    0.4723148208D-15    0.4722776797D-15
O-O(4343)                          16276    0.4723148208D-15    0.7172497671D+02
O-O(4524)                          16457    0.4723148208D-15    0.4722776797D-15
O-O(4575)                          16508    0.1434554711D-14    0.1434440536D-14
O-O(4626)                          16559    0.1434554711D-14    0.1434440536D-14
O-O(4717)                          16650    0.2983399273D-12    0.2983160836D-12
O-O(4768)                          16701    0.1434554711D-14    0.1434440536D-14
O-O(4845)                          16778    0.6092613765D-13    0.6092130777D-13
O-O(4889)                          16822    0.1218909449D-12    0.1218812851D-12
O-O(4902)                          16835    0.1434554711D-14    0.1434440536D-14
O-O(5016)                          16949    0.1434554711D-14    0.1434440536D-14
O-O(5034)                          16967    0.4723148208D-15    0.4722776797D-15
O-O(5114)                          17047    0.5707299688D-14    0.5706847269D-14
O-O(5133)                          17066    0.5707299688D-14    0.5706847269D-14
O-O(5286)                          17219    0.6092613765D-13    0.6092130777D-13
O-O(5351)                          17284    0.1434554711D-14    0.1434440536D-14
O-O(5394)                          17327    0.6092613765D-13    0.6092130777D-13
O-O(5451)                          17384    0.4723148208D-15    0.4722776797D-15
O-O(5633)                          17566    0.5707299688D-14    0.5706847269D-14
O-O(5711)                          17644    0.1434554711D-14    0.1434440536D-14
