#               System |               PES |              Ecut |          Molecule |      No Processes |
$                   O3              Merged   -0.1000000000D+05                  O2               18346
#          Current Bin |    PartFunc Ratio | Trans Temperature |   Int Temperature |   No Trajectories |
$                 5035    0.1138716163D-03    0.1200000000D+05    0.1200000000D+05               50000
#                                Process |              Rate |      Rate St. Dev |
